…
```
## A LDA_VEM topic model with 2 topics.
```

### Extracting Beta Values from the Two-Topic Model


``` r
ap_topics <- tidy(ap_lda, matrix = "beta")

ap_topics
```

```
## # A tibble: 20,946 × 3
##    topic term           beta
##    <int> <chr>         <dbl>
##  1     1 aaron      1.69e-12
##  2     2 aaron      3.90e- 5
##  3     1 abandon    2.65e- 5
##  4     2 abandon    3.99e- 5
##  5     1 abandoned  1.39e- 4
##  6     2 abandoned  5.88e- 5
##  7     1 abandoning 2.45e-33
##  8     2 abandoning 2.34e- 5
##  9     1 abbott     2.13e- 6
## 10     2 abbott     2.97e- 5
## # ℹ 20,936 more rows
```
…
```
## A LDA_VEM topic model with 5 topics.
```

### Extracting Beta Values from the Five-Topic Model


``` r
ap_topics <- tidy(ap_lda, matrix = "beta")

ap_topics
```

```
## # A tibble: 52,365 × 3
##    topic term        beta
##    <int> <chr>      <dbl>
##  1     1 aaron   2.80e- 5
##  2     2 aaron   8.47e- 9
##  3     3 aaron   3.74e-18
##  4     4 aaron   7.37e- 5
##  5     5 aaron   1.81e- 7
##  6     1 abandon 2.59e- 5
##  7     2 abandon 7.12e- 5
##  8     3 abandon 4.75e- 5
##  9     4 abandon 1.86e-24
## 10     5 abandon 2.98e- 5
## # ℹ 52,355 more rows
```
…
``` r
# Sort terms by descending beta values
ap_top_terms <- ap_topics %>%
  group_by(topic) %>%
  slice_max(beta, n = 10) %>%
  ungroup() %>%
  arrange(topic, -beta)

ap_top_terms
```

```
## # A tibble: 50 × 3
##    topic term          beta
##    <int> <chr>        <dbl>
##  1     1 percent    0.0198 
##  2     1 year       0.00908
##  3     1 million    0.00674
##  4     1 billion    0.00628
##  5     1 new        0.00573
##  6     1 report     0.00518
##  7     1 last       0.00489
##  8     1 years      0.00409
##  9     1 workers    0.00386
## 10     1 department 0.00372
## # ℹ 40 more rows
```

``` r
# Display additional rows
ap_top_terms <- ap_topics %>%
  group_by(topic) %>%
  slice_max(beta, n = 10) %>%
  ungroup() %>%
  arrange(topic, -beta) %>%
  print(n = 30)
```

```
## # A tibble: 50 × 3
##    topic term          beta
##    <int> <chr>        <dbl>
##  1     1 percent    0.0198 
##  2     1 year       0.00908
##  3     1 million    0.00674
##  4     1 billion    0.00628
##  5     1 new        0.00573
##  6     1 report     0.00518
##  7     1 last       0.00489
##  8     1 years      0.00409
##  9     1 workers    0.00386
## 10     1 department 0.00372
## 11     2 bush       0.00866
## 12     2 soviet     0.00850
## 13     2 president  0.00828
## 14     2 i          0.00658
## 15     2 united     0.00556
## 16     2 states     0.00549
## 17     2 new        0.00480
## 18     2 house      0.00438
## 19     2 dukakis    0.00412
## 20     2 government 0.00374
## 21     3 million    0.0129 
## 22     3 new        0.00900
## 23     3 company    0.00850
## 24     3 market     0.00821
## 25     3 stock      0.00792
## 26     3 billion    0.00586
## 27     3 percent    0.00579
## 28     3 year       0.00549
## 29     3 york       0.00547
## 30     3 dollar     0.00528
## # ℹ 20 more rows
```
…
``` r
ap_lda4 <- LDA(dtm, k = 4, control = list(seed = 1234))
```

### Extracting Per-Topic Word Probabilities (Beta Values)


``` r
ap_topics4 <- tidy(ap_lda4, matrix = "beta")

ap_topics4
```

```
## # A tibble: 55,656 × 3
##    topic term        beta
##    <int> <chr>      <dbl>
##  1     1 fanny  4.96e-  4
##  2     2 fanny  1.57e-  4
##  3     3 fanny  1.70e-  2
##  4     4 fanny  5.58e-128
##  5     1 emma   9.28e-  3
##  6     2 emma   3.92e-  5
##  7     3 emma   1.06e- 71
##  8     4 emma   5.13e-190
##  9     1 elinor 7.36e-  3
## 10     2 elinor 1.20e-123
## # ℹ 55,646 more rows
```
### Displaying the Top Terms for Each Topic


``` r
ap_top_terms4 <- ap_topics4 %>%
  group_by(topic) %>%
  slice_max(beta, n = 10) %>%
  ungroup() %>%
  arrange(topic, -beta)

ap_top_terms4
```

```
## # A tibble: 40 × 3
##    topic term         beta
##    <int> <chr>       <dbl>
##  1     1 miss      0.00975
##  2     1 emma      0.00928
##  3     1 elinor    0.00736
##  4     1 time      0.00624
##  5     1 marianne  0.00581
##  6     1 harriet   0.00492
##  7     1 weston    0.00459
##  8     1 dear      0.00431
##  9     1 knightley 0.00420
## 10     1 day       0.00397
## # ℹ 30 more rows
```
